\relax 
\providecommand\hyper@newdestlabel[2]{}
\catcode `"\active 
\providecommand\HyperFirstAtBeginDocument{\AtBeginDocument}
\HyperFirstAtBeginDocument{\ifx\hyper@anchor\@undefined
\global\let\oldcontentsline\contentsline
\gdef\contentsline#1#2#3#4{\oldcontentsline{#1}{#2}{#3}}
\global\let\oldnewlabel\newlabel
\gdef\newlabel#1#2{\newlabelxx{#1}#2}
\gdef\newlabelxx#1#2#3#4#5#6{\oldnewlabel{#1}{{#2}{#3}}}
\AtEndDocument{\ifx\hyper@anchor\@undefined
\let\contentsline\oldcontentsline
\let\newlabel\oldnewlabel
\fi}
\fi}
\global\let\hyper@last\relax 
\gdef\HyperFirstAtBeginDocument#1{#1}
\providecommand\HyField@AuxAddToFields[1]{}
\providecommand\HyField@AuxAddToCoFields[2]{}
\select@language{german}
\@writefile{toc}{\select@language{german}}
\@writefile{lof}{\select@language{german}}
\@writefile{lot}{\select@language{german}}
\@writefile{toc}{\contentsline {chapter}{\numberline {1}Hauptfenster}{3}{chapter.1}}
\@writefile{lof}{\addvspace {10\p@ }}
\@writefile{lot}{\addvspace {10\p@ }}
\@writefile{lof}{\contentsline {figure}{\numberline {1.1}{\ignorespaces Hauptansicht}}{3}{figure.1.1}}
\@writefile{toc}{\contentsline {section}{\numberline {1.1}Beschreibung}{3}{section.1.1}}
\@writefile{toc}{\contentsline {subsection}{\numberline {1.1.1}Controls des Anzeigefensters}{3}{subsection.1.1.1}}
\@writefile{toc}{\contentsline {subsection}{\numberline {1.1.2}Controls des Steuerungsfensters}{4}{subsection.1.1.2}}
\@writefile{toc}{\contentsline {chapter}{\numberline {2}Datei Men\IeC {\"u}}{5}{chapter.2}}
\@writefile{lof}{\addvspace {10\p@ }}
\@writefile{lot}{\addvspace {10\p@ }}
\@writefile{lof}{\contentsline {figure}{\numberline {2.1}{\ignorespaces Datei Men\IeC {\"u}}}{5}{figure.2.1}}
\@writefile{toc}{\contentsline {section}{\numberline {2.1}Beschreibung}{5}{section.2.1}}
\@writefile{toc}{\contentsline {section}{\numberline {2.2}NEW - Datei Men\IeC {\"u}}{6}{section.2.2}}
\@writefile{lof}{\contentsline {figure}{\numberline {2.2}{\ignorespaces Neu - Datei Men\IeC {\"u}}}{6}{figure.2.2}}
\@writefile{toc}{\contentsline {subsection}{\numberline {2.2.1}Beschreibung}{6}{subsection.2.2.1}}
\@writefile{toc}{\contentsline {section}{\numberline {2.3}OPEN - Datei Men\IeC {\"u}}{7}{section.2.3}}
\@writefile{lof}{\contentsline {figure}{\numberline {2.3}{\ignorespaces \IeC {\"O}ffnen - Datei Men\IeC {\"u}}}{7}{figure.2.3}}
\@writefile{toc}{\contentsline {subsection}{\numberline {2.3.1}Beschreibung}{7}{subsection.2.3.1}}
\@writefile{toc}{\contentsline {section}{\numberline {2.4}SAVE - Datei Men\IeC {\"u}}{8}{section.2.4}}
\@writefile{lof}{\contentsline {figure}{\numberline {2.4}{\ignorespaces Speichern - Datei Men\IeC {\"u}}}{8}{figure.2.4}}
\@writefile{toc}{\contentsline {subsection}{\numberline {2.4.1}Beschreibung}{8}{subsection.2.4.1}}
\@writefile{toc}{\contentsline {section}{\numberline {2.5}EXPORT - Datei Men\IeC {\"u}}{9}{section.2.5}}
\@writefile{lof}{\contentsline {figure}{\numberline {2.5}{\ignorespaces Exportieren - Datei Men\IeC {\"u}}}{9}{figure.2.5}}
\@writefile{toc}{\contentsline {subsection}{\numberline {2.5.1}Beschreibung}{9}{subsection.2.5.1}}
\@writefile{toc}{\contentsline {chapter}{\numberline {3}Ansichts Men\IeC {\"u}}{10}{chapter.3}}
\@writefile{lof}{\addvspace {10\p@ }}
\@writefile{lot}{\addvspace {10\p@ }}
\@writefile{lof}{\contentsline {figure}{\numberline {3.1}{\ignorespaces Ansichts Men\IeC {\"u}}}{10}{figure.3.1}}
\@writefile{toc}{\contentsline {section}{\numberline {3.1}Beschreibung}{10}{section.3.1}}
\@writefile{lof}{\contentsline {figure}{\numberline {3.2}{\ignorespaces Minimalansicht - Ansichts Men\IeC {\"u}}}{11}{figure.3.2}}
\@writefile{toc}{\contentsline {chapter}{\numberline {4}Einstellungs Men\IeC {\"u}}{12}{chapter.4}}
\@writefile{lof}{\addvspace {10\p@ }}
\@writefile{lot}{\addvspace {10\p@ }}
\@writefile{lof}{\contentsline {figure}{\numberline {4.1}{\ignorespaces Einstellungs Men\IeC {\"u}}}{12}{figure.4.1}}
\@writefile{toc}{\contentsline {section}{\numberline {4.1}Beschreibung}{12}{section.4.1}}
\@writefile{toc}{\contentsline {section}{\numberline {4.2}Kommandozeilen Einstellungen}{12}{section.4.2}}
\@writefile{toc}{\contentsline {section}{\numberline {4.3}MORE SETTINGS - Einstellungs Men\IeC {\"u}}{13}{section.4.3}}
\@writefile{lof}{\contentsline {figure}{\numberline {4.2}{\ignorespaces Mehr Einstellungen - Einstellungs Men\IeC {\"u}}}{13}{figure.4.2}}
\@writefile{toc}{\contentsline {subsection}{\numberline {4.3.1}Beschreibung}{13}{subsection.4.3.1}}
\@writefile{toc}{\contentsline {section}{\numberline {4.4}HELP - Einstellungs Men\IeC {\"u}}{14}{section.4.4}}
\@writefile{lof}{\contentsline {figure}{\numberline {4.3}{\ignorespaces Hilfe - Einstellungs Men\IeC {\"u}}}{14}{figure.4.3}}
\@writefile{toc}{\contentsline {subsection}{\numberline {4.4.1}Beschreibung}{14}{subsection.4.4.1}}
\@writefile{toc}{\contentsline {section}{\numberline {4.5}About - Einstellungs Men\IeC {\"u}}{15}{section.4.5}}
\@writefile{lof}{\contentsline {figure}{\numberline {4.4}{\ignorespaces Impressum - Einstellungs Men\IeC {\"u}}}{15}{figure.4.4}}
\@writefile{toc}{\contentsline {subsection}{\numberline {4.5.1}Beschreibung}{15}{subsection.4.5.1}}
