\select@language {german}
\contentsline {chapter}{\numberline {1}Hauptfenster}{3}{chapter.1}
\contentsline {section}{\numberline {1.1}Beschreibung}{3}{section.1.1}
\contentsline {subsection}{\numberline {1.1.1}Controls des Anzeigefensters}{3}{subsection.1.1.1}
\contentsline {subsection}{\numberline {1.1.2}Controls des Steuerungsfensters}{4}{subsection.1.1.2}
\contentsline {chapter}{\numberline {2}Datei Men\IeC {\"u}}{5}{chapter.2}
\contentsline {section}{\numberline {2.1}Beschreibung}{5}{section.2.1}
\contentsline {section}{\numberline {2.2}NEW - Datei Men\IeC {\"u}}{6}{section.2.2}
\contentsline {subsection}{\numberline {2.2.1}Beschreibung}{6}{subsection.2.2.1}
\contentsline {section}{\numberline {2.3}OPEN - Datei Men\IeC {\"u}}{7}{section.2.3}
\contentsline {subsection}{\numberline {2.3.1}Beschreibung}{7}{subsection.2.3.1}
\contentsline {section}{\numberline {2.4}SAVE - Datei Men\IeC {\"u}}{8}{section.2.4}
\contentsline {subsection}{\numberline {2.4.1}Beschreibung}{8}{subsection.2.4.1}
\contentsline {section}{\numberline {2.5}EXPORT - Datei Men\IeC {\"u}}{9}{section.2.5}
\contentsline {subsection}{\numberline {2.5.1}Beschreibung}{9}{subsection.2.5.1}
\contentsline {chapter}{\numberline {3}Ansichts Men\IeC {\"u}}{10}{chapter.3}
\contentsline {section}{\numberline {3.1}Beschreibung}{10}{section.3.1}
\contentsline {chapter}{\numberline {4}Einstellungs Men\IeC {\"u}}{12}{chapter.4}
\contentsline {section}{\numberline {4.1}Beschreibung}{12}{section.4.1}
\contentsline {section}{\numberline {4.2}Kommandozeilen Einstellungen}{12}{section.4.2}
\contentsline {section}{\numberline {4.3}MORE SETTINGS - Einstellungs Men\IeC {\"u}}{13}{section.4.3}
\contentsline {subsection}{\numberline {4.3.1}Beschreibung}{13}{subsection.4.3.1}
\contentsline {section}{\numberline {4.4}HELP - Einstellungs Men\IeC {\"u}}{14}{section.4.4}
\contentsline {subsection}{\numberline {4.4.1}Beschreibung}{14}{subsection.4.4.1}
\contentsline {section}{\numberline {4.5}About - Einstellungs Men\IeC {\"u}}{15}{section.4.5}
\contentsline {subsection}{\numberline {4.5.1}Beschreibung}{15}{subsection.4.5.1}
