\relax 
\catcode`"\active
\select@language{german}
\@writefile{toc}{\select@language{german}}
\@writefile{lof}{\select@language{german}}
\@writefile{lot}{\select@language{german}}
\gdef \LT@i {\LT@entry 
    {1}{23.68787pt}\LT@entry 
    {1}{197.28291pt}\LT@entry 
    {1}{197.28291pt}}
\@writefile{toc}{\contentsline {chapter}{\numberline {1}Testf\IeC {\"a}lle}{1}}
\@writefile{lof}{\addvspace {10\p@ }}
\@writefile{lot}{\addvspace {10\p@ }}
