\relax 
\catcode`"\active
\select@language{german}
\@writefile{toc}{\select@language{german}}
\@writefile{lof}{\select@language{german}}
\@writefile{lot}{\select@language{german}}
\@writefile{toc}{\contentsline {chapter}{\numberline {1}Idee}{1}}
\@writefile{lof}{\addvspace {10\p@ }}
\@writefile{lot}{\addvspace {10\p@ }}
\gdef \LT@i {\LT@entry 
    {1}{21.87071pt}\LT@entry 
    {1}{316.8491pt}\LT@entry 
    {1}{79.53386pt}}
\@writefile{toc}{\contentsline {chapter}{\numberline {2}Meilensteine}{2}}
\@writefile{lof}{\addvspace {10\p@ }}
\@writefile{lot}{\addvspace {10\p@ }}
